{
	"params": {
		"tempMin": "7",
		"tempMax": "30"
	},
	"objects": {
		"5": [{
			"n": {
				"id_lot_espace": "0",
				"id_objet": "0",
				"id_objet_piece": "0",
				"params": {
					"auto": "9",
					"setpointM": "18.5",
					"setpoint0": "21.0",
					"setpoint1": "19.0",
					"setpointA": "16"
				},
				"label": "Toutes les pi\u00e8ces",
				"pieceLabel": "Toutes les pi\u00e8ces",
				"id_type": "0",
				"code": "",
				"renommable": "0",
				"id_famille": "5",
				"reveil_possible": "0",
				"id_type_espace": "0"
			}
		}]
	},
	"global": 0,
	"success": true
}